…
# Workflow of the script

## Dataset: a modified starwars

I will demonstrate most of the tidyverse functions using a simplified
version of the `starwars` dataset, containing characteristics of 87
characters from the Star Wars franchise. Type `?starwars` if you want to
learn more about this tibble.

``` r
starwars
```

    ## # A tibble: 87 × 14
    ##    name     height  mass hair_color skin_color eye_color birth_year sex   gender
    ##    <chr>     <int> <dbl> <chr>      <chr>      <chr>          <dbl> <chr> <chr> 
    ##  1 Luke Sk…    172    77 blond      fair       blue            19   male  mascu…
    ##  2 C-3PO       167    75 <NA>       gold       yellow         112   none  mascu…
    ##  3 R2-D2        96    32 <NA>       white, bl… red             33   none  mascu…
    ##  4 Darth V…    202   136 none       white      yellow          41.9 male  mascu…
    ##  5 Leia Or…    150    49 brown      light      brown           19   fema… femin…
    ##  6 Owen La…    178   120 brown, gr… light      blue            52   male  mascu…
    ##  7 Beru Wh…    165    75 brown      light      blue            47   fema… femin…
    ##  8 R5-D4        97    32 <NA>       white, red red             NA   none  mascu…
    ##  9 Biggs D…    183    84 black      light      brown           24   male  mascu…
    ## 10 Obi-Wan…    182    77 auburn, w… fair       blue-gray       57   male  mascu…
    ## # … with 77 more rows, and 5 more variables: homeworld <chr>, species <chr>,
    ## #   films <list>, vehicles <list>, starships <list>
…
``` r
(data.long <-
  data.row %>%
  pivot_longer(cols = starts_with(c("Temp", "Prec")),
               values_to = "Value",
               names_to = "temporary"))
```

    ## # A tibble: 24 × 3
    ##    Site  temporary Value
    ##    <chr> <chr>     <dbl>
    ##  1 Site1 Temp1        10
    ##  2 Site1 Temp2        11
    ##  3 Site1 Temp3        12
    ##  4 Site1 Temp4        10
    ##  5 Site1 Prec1         3
    ##  6 Site1 Prec2         4
    ##  7 Site2 Temp1         5
    ##  8 Site2 Temp2         6
    ##  9 Site2 Temp3        14
    ## 10 Site2 Temp4         4
    ## # … with 14 more rows
…
We still have a problem: the day in which the measure was taken is not
separated from the environmental variable. We can use `separate()`,
which splits one column into multiple columns, by splitting wherever a
separator character appears, or by position (through positive or
negative numerical values). This function takes the name of the column
to separate, and the names of the columns to separate into.

``` r
(data.long2 <-
  data.long %>%
   # use numerical values: negative values start on the far right of the strings
  separate(col = temporary, into = c("Variable", "Day"), sep = -1))
```

    ## # A tibble: 24 × 4
    ##    Site  Variable Day   Value
    ##    <chr> <chr>    <chr> <dbl>
    ##  1 Site1 Temp     1        10
    ##  2 Site1 Temp     2        11
    ##  3 Site1 Temp     3        12
    ##  4 Site1 Temp     4        10
    ##  5 Site1 Prec     1         3
    ##  6 Site1 Prec     2         4
    ##  7 Site2 Temp     1         5
    ##  8 Site2 Temp     2         6
    ##  9 Site2 Temp     3        14
    ## 10 Site2 Temp     4         4
    ## # … with 14 more rows
…
